﻿"pos"	"ori"
"60|190"	"0.785398"
"420|190"	"-0.7853985"
"230|530"	"0"
"60|260"	"1.047197"
"120|190"	"0.5235987"
"360|190"	"-0.5235987"
"420|260"	"-1.047198"
"280|460"	"-0.2617993"
"180|460"	"0.2617993"
"70|330"	"1.308997"
"100|230"	"0.785398"
"190|200"	"0.2617993"
"290|200"	"-0.2617993"
"380|230"	"-0.785398"
"410|330"	"-1.308997"
"330|440"	"-0.5235987"
"230|420"	"0"
"130|440"	"0.5235987"
"60|400"	"0.5235987"
"100|320"	"0.785398"
"160|250"	"0.5235987"
"240|170"	"1.570796"
"320|250"	"-0.5235987"
"380|310"	"-0.7853985"
"410|400"	"-0.5235987"
"280|400"	"0"
"180|400"	"0"
