﻿"pos"	"ori"	"value"
"80|470"	"0"	"N/A"
"160|470"	"0"	"N/A"
"240|470"	"0"	"N/A"
"320|470"	"0"	"N/A"
"400|470"	"0"	"N/A"
"40|520"	"0"	"undefined"
"120|520"	"0"	"undefined"
"200|520"	"0"	"undefined"
"280|520"	"0"	"undefined"
"360|520"	"0"	"undefined"
"440|520"	"0"	"undefined"
"80|570"	"0"	"undefined"
"240|570"	"0"	"undefined"
"410|570"	"0"	"undefined"
